1 Input Data | _main.knit
…
## New names:
## Rows: 480 Columns: 17
## ── Column specification
## ────────────────────────────────────────────────────────────────────────────── Delimiter: "," chr
## (14): Sample, Filename, SubmittedPlate, sample_id, Geographic_code, Collection_data, SampleNam... dbl
## (3): ...1, Concentration, Reproducibility
## ℹ Use `spec()` to retrieve the full column specification for this data. ℹ Specify the column types or
## set `show_col_types = FALSE` to quiet this message.
## • `` -> `...1`

sample_info_SALT$...1 <- NULL

sample_info_SALT

## # A tibble: 480 × 16
##    Sample    Filename SubmittedPlate sample_id Geographic_code Collection_data SampleName SampleSource
##    <chr>     <chr>    <chr>          <chr>     <chr>           <chr>           <chr>      <chr>       
##  1 a551319-… 9SR48340 F12            BWBFL_1   BWBFL           25.92860, -81.… Customer   Genomic     
##  2 a551319-… 9SR48340 G08            BWBFL_10  BWBFL           25.92860, -81.… Customer   Genomic     
##  3 a551319-… 9SR48340 G09            BWBFL_11  BWBFL           25.92860, -81.… Customer   Genomic     
##  4 a551319-… 9SR48340 G10            BWBFL_12  BWBFL           25.92860, -81.… Customer   Genomic     
##  5 a551319-… 9SR48340 G11            BWBFL_14  BWBFL           25.92860, -81.… Customer   Genomic     
##  6 a551319-… 9SR48340 G12            BWBFL_15  BWBFL           25.92860, -81.… Customer   Genomic     
##  7 a551319-… 9SR48340 H01            BWBFL_16  BWBFL           25.92860, -81.… Customer   Genomic     
##  8 a551319-… 9SR48340 H02            BWBFL_17  BWBFL           25.92860, -81.… Customer   Genomic     
##  9 a551319-… 9SR48340 H03            BWBFL_18  BWBFL           25.92860, -81.… Customer   Genomic     
## 10 a551319-… 9SR48340 H04            BWBFL_19  BWBFL           25.92860, -81.… Customer   Genomic     
## # ℹ 470 more rows
## # ℹ 8 more variables: SampleType <chr>, Species <chr>, Concentration <dbl>, PlateName <chr>,
## #   Rename <chr>, Reproducibility <dbl>, Gender <chr>, SampleOrigin <chr>
…
## New names:
## Rows: 463 Columns: 15
## ── Column specification
## ────────────────────────────────────────────────────────────────────────────── Delimiter: "," chr
## (11): lib_id, sample_id, barcode, index, site, region, gulf_location, state, bay, tidal.zone, ... dbl
## (4): ...1, lib, latitude, longitude
## ℹ Use `spec()` to retrieve the full column specification for this data. ℹ Specify the column types or
## set `show_col_types = FALSE` to quiet this message.
## • `` -> `...1`

sample_info_RAD$...1 <- NULL

sample_info_RAD

## # A tibble: 463 × 14
##    lib_id sample_id barcode index    site      lib region gulf_location state bay   latitude longitude
##    <chr>  <chr>     <chr>   <chr>    <chr>   <dbl> <chr>  <chr>         <chr> <chr>    <dbl>     <dbl>
##  1 apa_01 59751     TCAGT   index_04 apalac…     1 north… Eastern       FL    Apal…     29.7     -84.9
##  2 apa_02 59752     AGCTA   index_04 apalac…     1 north… Eastern       FL    Apal…     29.7     -84.9
##  3 apa_03 59753     CGGTA   index_04 apalac…     1 north… Eastern       FL    Apal…     29.7     -84.9
##  4 apa_04 59754     GGATA   index_04 apalac…     1 north… Eastern       FL    Apal…     29.7     -84.9
##  5 apa_05 59755     TCCGG   index_04 apalac…     1 north… Eastern       FL    Apal…     29.7     -84.9
##  6 apa_06 59756     ACACA   index_04 apalac…     1 north… Eastern       FL    Apal…     29.7     -84.9
##  7 apa_07 59757     GCATG   index_03 apalac…     1 north… Eastern       FL    Apal…     29.7     -84.9
##  8 apa_08 59758     ACTGG   index_03 apalac…     1 north… Eastern       FL    Apal…     29.7     -84.9
##  9 apa_09 59759     CTGCG   index_03 apalac…     1 north… Eastern       FL    Apal…     29.7     -84.9
## 10 apa_10 59760     GTCCG   index_03 apalac…     1 north… Eastern       FL    Apal…     29.7     -84.9
## # ℹ 453 more rows
## # ℹ 2 more variables: tidal.zone <chr>, harvest <chr>
…
