9 Prep Data File for Paragon | Selecting SNPs for SALT array
…
Adjust so chromStart is the position and chromEnd is chromStart + 1 and so instead of “1” it is “chr1”

bed <- panel_snps %>%
  mutate(chromEnd = pos +1) %>%
  rename(chromStart = pos) %>%
  mutate(holder = "chr") %>%
  mutate(chrom = paste(holder,chrom,sep="")) %>%
  select(chrom,chromStart,chromEnd)
as_tibble(bed)

## # A tibble: 5,250 × 3
##    chrom chromStart chromEnd
##    <chr>      <dbl>    <dbl>
##  1 chr1    59205245 59205246
##  2 chr1    60046917 60046918
##  3 chr1    61521865 61521866
##  4 chr1    61742861 61742862
##  5 chr1    20277463 20277464
##  6 chr1    62906370 62906371
##  7 chr1    63385209 63385210
##  8 chr1    63903571 63903572
##  9 chr1    64464304 64464305
## 10 chr1    64615172 64615173
## # ℹ 5,240 more rows
…
