3 Select Candidate SNPs | _main.knit
…
The check was successful, seems populations appopriately assigned

3.3.4 Format data into the hierfstat format for analysis of heterozygosity and MAF

#if pop=NULL, pop assigned based on what is in the pop slot of the genind object

hgen<-genind2hierfstat(gind, pop=NULL)
b_stats <- basic.stats(hgen,diploid=TRUE,digits=4)

# Heterozygosities per loci in each group
as_tibble(b_stats$Ho, rownames= NA) %>% 
  rownames_to_column()

## # A tibble: 105,363 × 5
##    rowname       ngom    nfl    gfl    stx
##    <chr>        <dbl>  <dbl>  <dbl>  <dbl>
##  1 AX168593894 0      0      0.0147 0.387 
##  2 AX168612286 0.165  0.182  0.224  0.0328
##  3 AX562727784 0.0324 0.125  0.132  0.0328
##  4 AX562727806 0.406  0.576  0.485  0.0645
##  5 AX562727827 0.157  0.0909 0.0294 0.113 
##  6 AX562728138 0.437  0.469  0.554  0.361 
##  7 AX562728433 0.439  0.394  0.368  0.113 
##  8 AX562728724 0.539  0.546  0.368  0.0484
##  9 AX562728798 0.088  0.424  0.397  0     
## 10 AX562728875 0.130  0.242  0.176  0.833 
## # ℹ 105,353 more rows
…
hgen2 <- hgen %>%
  select(!all_of(hiH_loci))

3.4.2 Re-analyze the data for heterozygosities

b_stats2 <- basic.stats(hgen2,diploid=TRUE,digits=4)

# Heterozygosities per loci in each group
as_tibble(b_stats2$Ho, rownames= NA) %>% 
  rownames_to_column()

## # A tibble: 91,310 × 5
##    rowname       ngom    nfl    gfl    stx
##    <chr>        <dbl>  <dbl>  <dbl>  <dbl>
##  1 AX168593894 0      0      0.0147 0.387 
##  2 AX168612286 0.165  0.182  0.224  0.0328
##  3 AX562727784 0.0324 0.125  0.132  0.0328
##  4 AX562727827 0.157  0.0909 0.0294 0.113 
##  5 AX562728433 0.439  0.394  0.368  0.113 
##  6 AX562728798 0.088  0.424  0.397  0     
##  7 AX562729352 0.0323 0      0.0147 0     
##  8 AX562729356 0.444  0.273  0.235  0.131 
##  9 AX562729364 0.335  0.375  0.382  0.0484
## 10 AX562729453 0.380  0.281  0.403  0.117 
## # ℹ 91,300 more rows
…
Blue denotes alleles that have p > 0.05 from hw.test (cannot be rejected as out of HWE), purple those with p < 0.05 (can be rejected as out of HWE)

3.4.6 Select loci that are fail HWE test (p < 0.05)

# HWE per loci in each group
as_tibble(hmmat, rownames= NA) %>% 
  rownames_to_column()

## # A tibble: 91,310 × 5
##    rowname        ngom   nfl   gfl         stx
##    <chr>         <dbl> <dbl> <dbl>       <dbl>
##  1 AX168593894 1           1     1 1          
##  2 AX168612286 0.00137     1     1 0.000000393
##  3 AX562727784 1           1     1 1          
##  4 AX562727827 1           1     1 1          
##  5 AX562728433 1           1     1 1          
##  6 AX562728798 1           1     1 1          
##  7 AX562729352 1           1     1 1          
##  8 AX562729356 1           1     1 1          
##  9 AX562729364 1           1     1 1          
## 10 AX562729453 1           1     1 1          
## # ℹ 91,300 more rows
…
