4 Select SNPs for Panel | Selecting SNPs for SALT array
…
library(ldpanelopt)

4.4.1 Make snp_tbl

Table of snp_id, chromosome the snp is found on, position on the chromosome, maf of the snp, “chip1” which is just a sequence of numbers 1:number of snps, and “chip2” which is 0

maf_snps <-readRDS(here::here("data","derived","MAF_SNPs")) %>% 
  tibble(., snp_id = rownames(.)) %>%
  select(snp_id,gfl_frq,nfl_frq,ngom_frq,stx_frq) %>%
  rowwise() %>%
  mutate(maf = mean(c(gfl_frq,nfl_frq,ngom_frq,stx_frq))) %>%
  select(snp_id, maf)
maf_snps

## # A tibble: 10,774 × 2
## # Rowwise: 
##    snp_id        maf
##    <chr>       <dbl>
##  1 AX562728433 0.238
##  2 AX562729356 0.191
##  3 AX562729453 0.204
##  4 AX562729930 0.247
##  5 AX562733277 0.272
##  6 AX562733495 0.313
##  7 AX562733961 0.160
##  8 AX562735439 0.186
##  9 AX562736320 0.218
## 10 AX562737211 0.244
## # ℹ 10,764 more rows

snp_tbl <- candidates %>%
  arrange(-desc(cust_chr)) %>%
  mutate(cust_chr = as.character(cust_chr)) %>%
  mutate(chip1 = seq(1:nrow(.))) %>%
  mutate(chip2 = 0) %>%
  rename(snp_id = probeset_id, chrom = cust_chr, pos = cust_pos) %>%
  mutate(pos = as.numeric(pos)) %>% 
  left_join(.,maf_snps, by = "snp_id") %>%
  select(snp_id, chrom, pos, maf, chip1, chip2)
as_tibble(snp_tbl) 

## # A tibble: 10,774 × 6
##    snp_id      chrom      pos   maf chip1 chip2
##    <chr>       <chr>    <dbl> <dbl> <int> <dbl>
##  1 AX562728433 1     59205245 0.238     1     0
##  2 AX562729356 1     59722684 0.191     2     0
##  3 AX562729453 1     59794668 0.204     3     0
##  4 AX562729930 1     60046917 0.247     4     0
##  5 AX562733277 1     61521865 0.272     5     0
##  6 AX562733495 1     61742861 0.313     6     0
##  7 AX562733961 1     20277463 0.160     7     0
##  8 AX562735439 1     62906370 0.186     8     0
##  9 AX562736320 1     63385209 0.218     9     0
## 10 AX562737211 1     63633574 0.244    10     0
## # ℹ 10,764 more rows
…
Run the greedy algorithm

test <- choose_snps_greedy(snp_tbl,chrom_tbl)

Check results, should be data frame similar to snp_tbl, but now “chip2” specifies if the snp has been selected for the panel or not. If 0, it is not selected.

as_tibble(test)

## # A tibble: 10,774 × 6
##    snp_id      chrom      pos   maf chip1 chip2
##    <chr>       <chr>    <dbl> <dbl> <int> <int>
##  1 AX562728433 1     59205245 0.238     1     1
##  2 AX562729356 1     59722684 0.191     2     0
##  3 AX562729453 1     59794668 0.204     3     0
##  4 AX562729930 1     60046917 0.247     4     2
##  5 AX562733277 1     61521865 0.272     5     3
##  6 AX562733495 1     61742861 0.313     6     4
##  7 AX562733961 1     20277463 0.160     7     5
##  8 AX562735439 1     62906370 0.186     8     6
##  9 AX562736320 1     63385209 0.218     9     7
## 10 AX562737211 1     63633574 0.244    10     0
## # ℹ 10,764 more rows
…
They do

4.5 Add Pop Diagnostic SNPs to MAF SNPs for final list

#population diagnostic snps
pop_snps <-snp_info_full %>%
  select(probeset_id,cust_chr,cust_pos) %>%
  filter(probeset_id %in% flvgulf_snps | probeset_id %in% stxvgulf_snps) %>%
  mutate(cust_chr = as.numeric (cust_chr)) %>%
  unique() %>%
  rename(snp_id = probeset_id, chrom = cust_chr,pos = cust_pos) %>%
  mutate(pos = as.numeric(pos))
as_tibble(pop_snps)

## # A tibble: 50 × 3
##    snp_id      chrom      pos
##    <chr>       <dbl>    <dbl>
##  1 AX563489003     1 42310796
##  2 AX564362466     1 42158083
##  3 AX566845614     2 24478387
##  4 AX567445903     4 39309711
##  5 AX567707328     8  6683853
##  6 AX567719919     8  7095343
##  7 AX567844508     9 56175126
##  8 AX568205320     2 24477120
##  9 AX568402584     1 42163393
## 10 AX570588190     5 62236352
## # ℹ 40 more rows
…
