7 Select SNPs for Panel Using Physical-Distance-Based-Method | Selecting SNPs for SALT array
…
## [1] 5192

LD_ids[duplicated(LD_ids)]

## [1] "AX567013274" "AX567013274" "AX567013274" "AX567013274" "AX567013274"
## [6] "AX575043459" "AX573867097" "AX573867097"

Now, get tibble of LD_ids

phys_select_snps <- candidates %>%
  filter(probeset_id %in% LD_ids)
as_tibble(phys_select_snps)

## # A tibble: 5,192 × 3
##    probeset_id cust_chr cust_pos
##    <chr>          <dbl> <chr>   
##  1 AX562728433        1 59205245
##  2 AX562733961        1 20277463
##  3 AX562735439        1 62906370
##  4 AX562736320        1 63385209
##  5 AX562737564        1 63728142
##  6 AX562738101        1 63903571
##  7 AX562738713        1 64464304
##  8 AX562738980        1 64615172
##  9 AX562739209        1 64736294
## 10 AX562741463        2 711839  
## # ℹ 5,182 more rows
…
maf_snps <-readRDS(here::here("data","derived","MAF_SNPs")) %>% 
  tibble(., snp_id = rownames(.)) %>%
  select(snp_id,gfl_frq,nfl_frq,ngom_frq,stx_frq) %>%
  rowwise() %>%
  mutate(maf = mean(c(gfl_frq,nfl_frq,ngom_frq,stx_frq))) %>%
  select(snp_id, maf)

phys_select_snps <- phys_select_snps %>%
  rename(snp_id = probeset_id,chrom = cust_chr, pos = cust_pos) %>%
  left_join(.,maf_snps,by="snp_id") %>%
  mutate(chrom = as.numeric(chrom))
as_tibble(phys_select_snps)

## # A tibble: 5,192 × 4
##    snp_id      chrom pos        maf
##    <chr>       <dbl> <chr>    <dbl>
##  1 AX562728433     1 59205245 0.238
##  2 AX562733961     1 20277463 0.160
##  3 AX562735439     1 62906370 0.186
##  4 AX562736320     1 63385209 0.218
##  5 AX562737564     1 63728142 0.188
##  6 AX562738101     1 63903571 0.212
##  7 AX562738713     1 64464304 0.272
##  8 AX562738980     1 64615172 0.411
##  9 AX562739209     1 64736294 0.365
## 10 AX562741463     2 711839   0.117
## # ℹ 5,182 more rows
…
as_tibble(phys_select_snps)

## # A tibble: 5,192 × 4
##    snp_id      chrom pos        maf
##    <chr>       <dbl> <chr>    <dbl>
##  1 AX562728433     1 59205245 0.238
##  2 AX562733961     1 20277463 0.160
##  3 AX562735439     1 62906370 0.186
##  4 AX562736320     1 63385209 0.218
##  5 AX562737564     1 63728142 0.188
##  6 AX562738101     1 63903571 0.212
##  7 AX562738713     1 64464304 0.272
##  8 AX562738980     1 64615172 0.411
##  9 AX562739209     1 64736294 0.365
## 10 AX562741463     2 711839   0.117
## # ℹ 5,182 more rows
…
Substantially lower

7.5 Add Pop Diagnostic SNPs to the snps selected by physical distance for a final list

#population diagnostic snps
pop_snps <-snp_info_full %>%
  select(probeset_id,cust_chr,cust_pos) %>%
  filter(probeset_id %in% flvgulf_snps | probeset_id %in% stxvgulf_snps) %>%
  mutate(cust_chr = as.numeric (cust_chr)) %>%
  unique() %>%
  rename(snp_id = probeset_id, chrom = cust_chr,pos = cust_pos) %>%
  mutate(pos = as.numeric(pos))
as_tibble(pop_snps)

## # A tibble: 50 × 3
##    snp_id      chrom      pos
##    <chr>       <dbl>    <dbl>
##  1 AX563489003     1 42310796
##  2 AX564362466     1 42158083
##  3 AX566845614     2 24478387
##  4 AX567445903     4 39309711
##  5 AX567707328     8  6683853
##  6 AX567719919     8  7095343
##  7 AX567844508     9 56175126
##  8 AX568205320     2 24477120
##  9 AX568402584     1 42163393
## 10 AX570588190     5 62236352
## # ℹ 40 more rows

phys_panel_snps <- phys_select_snps %>%
  mutate(pos = as.numeric(pos)) %>%
  bind_rows(.,pop_snps)
as_tibble(phys_panel_snps)

## # A tibble: 5,242 × 4
##    snp_id      chrom      pos   maf
##    <chr>       <dbl>    <dbl> <dbl>
##  1 AX562728433     1 59205245 0.238
##  2 AX562733961     1 20277463 0.160
##  3 AX562735439     1 62906370 0.186
##  4 AX562736320     1 63385209 0.218
##  5 AX562737564     1 63728142 0.188
##  6 AX562738101     1 63903571 0.212
##  7 AX562738713     1 64464304 0.272
##  8 AX562738980     1 64615172 0.411
##  9 AX562739209     1 64736294 0.365
## 10 AX562741463     2   711839 0.117
## # ℹ 5,232 more rows
…
