6 Summary Plots of SNPs for Panel | Selecting SNPs for SALT array
…
            Selecting SNPs for SALT array

6 Summary Plots of SNPs for Panel

6.1 Distribution of SNPs

panel_snps <- readRDS(file = here::here("data","derived","panel_snps"))
as_tibble(panel_snps)

## # A tibble: 5,250 × 4
##    snp_id      chrom      pos   maf
##    <chr>       <dbl>    <dbl> <dbl>
##  1 AX562728433     1 59205245 0.238
##  2 AX562729930     1 60046917 0.247
##  3 AX562733277     1 61521865 0.272
##  4 AX562733495     1 61742861 0.313
##  5 AX562733961     1 20277463 0.160
##  6 AX562735439     1 62906370 0.186
##  7 AX562736320     1 63385209 0.218
##  8 AX562738101     1 63903571 0.212
##  9 AX562738713     1 64464304 0.272
## 10 AX562738980     1 64615172 0.411
## # ℹ 5,240 more rows
…
